<svg width="275" height="59" viewBox="0 0 275 59" fill="none" xmlns="http://www.w3.org/2000/svg">
<path d="M19.032 46.768C15.4907 46.768 12.056 46.2987 8.728 45.36C5.44267 44.3787 2.79733 43.12 0.792 41.584L4.312 33.776C6.232 35.184 8.51467 36.3147 11.16 37.168C13.8053 38.0213 16.4507 38.448 19.096 38.448C22.04 38.448 24.216 38.0213 25.624 37.168C27.032 36.272 27.736 35.0987 27.736 33.648C27.736 32.5813 27.3093 31.7067 26.456 31.024C25.6453 30.2987 24.5787 29.7227 23.256 29.296C21.976 28.8693 20.2267 28.4 18.008 27.888C14.5947 27.0773 11.8 26.2667 9.624 25.456C7.448 24.6453 5.57067 23.344 3.992 21.552C2.456 19.76 1.688 17.3707 1.688 14.384C1.688 11.7813 2.392 9.43467 3.8 7.344C5.208 5.21066 7.32 3.52533 10.136 2.288C12.9947 1.05067 16.472 0.431999 20.568 0.431999C23.4267 0.431999 26.2213 0.773332 28.952 1.456C31.6827 2.13867 34.072 3.12 36.12 4.4L32.92 12.272C28.7813 9.92533 24.6427 8.752 20.504 8.752C17.6027 8.752 15.448 9.22133 14.04 10.16C12.6747 11.0987 11.992 12.336 11.992 13.872C11.992 15.408 12.7813 16.56 14.36 17.328C15.9813 18.0533 18.4347 18.7787 21.72 19.504C25.1333 20.3147 27.928 21.1253 30.104 21.936C32.28 22.7467 34.136 24.0267 35.672 25.776C37.2507 27.5253 38.04 29.8933 38.04 32.88C38.04 35.44 37.3147 37.7867 35.864 39.92C34.456 42.0107 32.3227 43.6747 29.464 44.912C26.6053 46.1493 23.128 46.768 19.032 46.768ZM79.1085 11.568V46H69.6365V41.904C68.3138 43.3973 66.7352 44.5493 64.9005 45.36C63.0658 46.128 61.0818 46.512 58.9485 46.512C54.4258 46.512 50.8418 45.2107 48.1965 42.608C45.5512 40.0053 44.2285 36.144 44.2285 31.024V11.568H54.2125V29.552C54.2125 35.0987 56.5378 37.872 61.1885 37.872C63.5778 37.872 65.4978 37.104 66.9485 35.568C68.3992 33.9893 69.1245 31.664 69.1245 28.592V11.568H79.1085ZM108.71 11.056C111.91 11.056 114.811 11.8027 117.414 13.296C120.059 14.7467 122.129 16.816 123.622 19.504C125.115 22.1493 125.862 25.2427 125.862 28.784C125.862 32.3253 125.115 35.44 123.622 38.128C122.129 40.7733 120.059 42.8427 117.414 44.336C114.811 45.7867 111.91 46.512 108.71 46.512C104.315 46.512 100.859 45.1253 98.342 42.352V58.416H88.358V11.568H97.894V15.536C100.369 12.5493 103.974 11.056 108.71 11.056ZM106.982 38.32C109.542 38.32 111.633 37.4667 113.254 35.76C114.918 34.0107 115.75 31.6853 115.75 28.784C115.75 25.8827 114.918 23.5787 113.254 21.872C111.633 20.1227 109.542 19.248 106.982 19.248C104.422 19.248 102.31 20.1227 100.646 21.872C99.0247 23.5787 98.214 25.8827 98.214 28.784C98.214 31.6853 99.0247 34.0107 100.646 35.76C102.31 37.4667 104.422 38.32 106.982 38.32ZM154.69 46.768C150.124 46.768 145.986 45.7867 142.274 43.824C138.604 41.8187 135.703 39.0667 133.57 35.568C131.479 32.0267 130.434 28.0373 130.434 23.6C130.434 19.1627 131.479 15.1947 133.57 11.696C135.703 8.15467 138.604 5.40267 142.274 3.44C145.986 1.43467 150.146 0.431999 154.754 0.431999C158.636 0.431999 162.135 1.11467 165.25 2.48C168.407 3.84533 171.052 5.808 173.186 8.368L166.53 14.512C163.5 11.0133 159.746 9.264 155.266 9.264C152.492 9.264 150.018 9.88267 147.842 11.12C145.666 12.3147 143.959 14 142.722 16.176C141.527 18.352 140.93 20.8267 140.93 23.6C140.93 26.3733 141.527 28.848 142.722 31.024C143.959 33.2 145.666 34.9067 147.842 36.144C150.018 37.3387 152.492 37.936 155.266 37.936C159.746 37.936 163.5 36.1653 166.53 32.624L173.186 38.768C171.052 41.3707 168.407 43.3547 165.25 44.72C162.092 46.0853 158.572 46.768 154.69 46.768ZM193.121 11.056C198.454 11.056 202.55 12.336 205.409 14.896C208.268 17.4133 209.697 21.232 209.697 26.352V46H200.353V41.712C198.476 44.912 194.977 46.512 189.857 46.512C187.212 46.512 184.908 46.064 182.945 45.168C181.025 44.272 179.553 43.0347 178.529 41.456C177.505 39.8773 176.993 38.0853 176.993 36.08C176.993 32.88 178.188 30.3627 180.577 28.528C183.009 26.6933 186.742 25.776 191.777 25.776H199.713C199.713 23.6 199.052 21.936 197.729 20.784C196.406 19.5893 194.422 18.992 191.777 18.992C189.942 18.992 188.129 19.2907 186.337 19.888C184.588 20.4427 183.094 21.2107 181.857 22.192L178.273 15.216C180.15 13.8933 182.39 12.8693 184.993 12.144C187.638 11.4187 190.348 11.056 193.121 11.056ZM192.353 39.792C194.06 39.792 195.574 39.408 196.897 38.64C198.22 37.8293 199.158 36.656 199.713 35.12V31.6H192.865C188.769 31.6 186.721 32.944 186.721 35.632C186.721 36.912 187.212 37.936 188.193 38.704C189.217 39.4293 190.604 39.792 192.353 39.792ZM230.317 46.512C227.458 46.512 224.664 46.1707 221.933 45.488C219.202 44.7627 217.026 43.8667 215.405 42.8L218.733 35.632C220.269 36.6133 222.125 37.424 224.301 38.064C226.477 38.6613 228.61 38.96 230.701 38.96C234.925 38.96 237.037 37.9147 237.037 35.824C237.037 34.8427 236.461 34.1387 235.309 33.712C234.157 33.2853 232.386 32.9227 229.997 32.624C227.181 32.1973 224.856 31.7067 223.021 31.152C221.186 30.5973 219.586 29.616 218.221 28.208C216.898 26.8 216.237 24.7947 216.237 22.192C216.237 20.016 216.856 18.096 218.093 16.432C219.373 14.7253 221.208 13.4027 223.597 12.464C226.029 11.5253 228.888 11.056 232.173 11.056C234.605 11.056 237.016 11.3333 239.405 11.888C241.837 12.4 243.842 13.1253 245.421 14.064L242.093 21.168C239.064 19.4613 235.757 18.608 232.173 18.608C230.04 18.608 228.44 18.9067 227.373 19.504C226.306 20.1013 225.773 20.8693 225.773 21.808C225.773 22.8747 226.349 23.6213 227.501 24.048C228.653 24.4747 230.488 24.88 233.005 25.264C235.821 25.7333 238.125 26.2453 239.917 26.8C241.709 27.312 243.266 28.272 244.589 29.68C245.912 31.088 246.573 33.0507 246.573 35.568C246.573 37.7013 245.933 39.6 244.653 41.264C243.373 42.928 241.496 44.2293 239.021 45.168C236.589 46.064 233.688 46.512 230.317 46.512ZM274.941 44.336C273.96 45.0613 272.744 45.616 271.293 46C269.885 46.3413 268.392 46.512 266.813 46.512C262.717 46.512 259.538 45.4667 257.277 43.376C255.058 41.2853 253.949 38.2133 253.949 34.16V20.016H248.637V12.336H253.949V3.952H263.933V12.336H272.509V20.016H263.933V34.032C263.933 35.4827 264.296 36.6133 265.021 37.424C265.789 38.192 266.856 38.576 268.221 38.576C269.8 38.576 271.144 38.1493 272.253 37.296L274.941 44.336Z" fill="black" fill-opacity="0.79"/>
</svg>
